…
``` r
gss <- gss %>% group_by(year) %>% mutate(homo_sex = as.character(homosex), obs_years = n())

dist_homo <- gss %>% filter(!is.na(homosex), homo_sex=="Always Wrong")

new <- dist_homo %>% group_by(year, obs_years) %>% summarise(cnt = n()) 

new <- new %>% group_by(year) %>% summarise(prop = cnt/obs_years)

#Summary statistics
new
```

    ## # A tibble: 24 × 2
    ##     year      prop
    ##    <int>     <dbl>
    ## 1   1973 0.7001330
    ## 2   1974 0.6704852
    ## 3   1976 0.6664443
    ## 4   1977 0.6823529
    ## 5   1980 0.6975477
    ## 6   1982 0.7118280
    ## 7   1984 0.7026477
    ## 8   1985 0.7288136
    ## 9   1987 0.7520616
    ## 10  1988 0.4861580
    ## # ... with 14 more rows
…
